{
  "contact": {
    "us":
    {
      "contacts": {
        "internal": {
          "city": "Edmonton",
          "name": "Edmonton City Centre East",
          "division": "Compliance Department",
          "address": "Edmonton City Centre East, Suite 400, 10205 101 Street",
          "postal": "T5J 4H5",
          "region": "AB",
          "email": "customerfeedback@firmafx.com",
          "phone": [
            {
              "type": "normal",
              "number": "0011 1 (877) 376-4946"
            }
          ]
        },
        "external": {
          "website": "www.consumerfinance.gov",
          "phone": [
            {
              "type": "normal",
              "number": "(855) 411-2372"
            },
            {
              "type": "normal",
              "number": "(855) 729-2372 (TTY/TDD)"
            }
          ]
        },
        "additional": [
          {
            "region": "Arizona",
            "regionCode": "AZ",
            "city": "Phoenix",
            "name": "Arizona Department of Financial Institutions",
            "address": "2910 N. 44th Street, Suite 310",
            "postal": "85018",
            "email": "customerfeedback@firmafx.com",
            "website": "www.azdfi.gov",
            "phone": [
              {
                "type": "normal",
                "number": "(602) 771-2800"
              }
            ]
          },
          {
            "region": "California",
            "regionCode": "CA",
            "city": "Sacramento",
            "name": "Consumer Services",
            "division": "Department of Business Oversight",
            "address": "1515 K Street, Suite 200",
            "postal": "95814",
            "email": "consumer.services@dbo.ca.gov",
            "before": "If you have complaints with respect to any aspect of the money transmission activities conducted at this location, you may contact:",
            "phone": [
              {
                "type": "toll-free",
                "number": "1-866-275-2677"
              }
            ]
          },
          {
            "region": "Connecticut",
            "regionCode": "CT",
            "city": "Hartford",
            "name": "Connecticut Department of Banking",
            "division": "Government Relations and Consumer Affairs",
            "address": "260 Constitution Plaza",
            "postal": "06103-1800",
            "website": "www.ct.gov.com",
            "phone": [
              {
                "type": "toll-free",
                "number": "(800) 831-7225"
              }
            ]
          },
          {
            "region": "Kansas",
            "regionCode": "KS",
            "city": "Topeka",
            "name": "Office of the State Bank Commissioner",
            "address": "700 Jackson, Suite 300",
            "postal": "66603",
            "email": "complaints@osbckansas.org",
            "phone": [
              {
                "type": "normal",
                "number": "(785) 296-2266"
              },
              {
                "type": "toll-free",
                "number": "800-622-0620"
              }
            ]
          },
          {
            "region": "Massachusetts",
            "regionCode": "MA",
            "city": "Boston",
            "name": "Consumer Assistance Office",
            "division": "Massachusetts Division of Banks",
            "address": "1000 Washington Street, 10th floor",
            "postal": "02118-2218",
            "website": "www.mass.gov/ocabr",
            "phone": [
              {
                "type": "normal",
                "number": "(800) 495-2265 ext.501 within Massachusetts"
              },
              {
                "type":"normal",
                "number": "(617) 956-1500 ext. 501 outside of Massachusetts"
              }
            ]
          },
          {
            "region": "Minnesota",
            "regionCode": "MN",
            "city": "St. Paul",
            "name": "State of Minnesota Department of Commerce",
            "division": "Division of Financial Institutions",
            "address": "85 7th Place East, Suite 500",
            "postal": "55101-2198",
            "website": "mn.gov/commerce/banking-and-finance",
            "notes": "<strong>Voluntary Disqualification by Customer:</strong> As per Minnesota Statute 53B.27, subdivision 2, you are entitled to voluntary disqualify yourself from sending or receiving money transfers. This disqualification last for one year unless you give instructions that it be in effect for a period longer than one year. To apply for voluntary disqualification, please fill out the form linked here. You may terminate this disqualification at any time upon written request to FIRMA Foreign Exchange Corporation (U.S.) Ltd.",
            "phone": [
              {
                "type": "normal",
                "number": "(651) 296-2135"
              }
            ]
          },
          {
            "region": "Montana",
            "regionCode": "MT",
            "city": "Helena",
            "name": "State of Montana Department of Administration",
            "division": "Division of Banking and Financial Institutions",
            "address": "301 South Park, Suite 316 – PO Box 200546",
            "postal": "59620-0546",
            "website": "www.banking.mt.gov",
            "phone": [
              {
                "type": "normal",
                "number": "(406) 841-2918"
              }
            ]
          },
          {
            "region": "New Jersey",
            "regionCode": "NJ",
            "city": "Trenton",
            "name": "New Jersey Department of Banking and Insurance",
            "division": "Consumer Inquiry and Response Center (“CIRC”)",
            "address": "P.O. Box 471",
            "postal": "08625-0471",
            "website": "www.state.nj.us/dobi/consumer.htm",
            "phone": [
              {
                "type": "normal",
                "number": "(609) 292-7272"
              }
            ]
          },
          {
            "region": "New York",
            "regionCode": "NY",
            "city": "Albany",
            "name": "Department of Financial Services",
            "division": "Consumer Assistance Unit",
            "address": "One Commerce Plaza",
            "postal": "12257",
            "phone": [
              {
                "type": "normal",
                "number": "1 (212) 480-6400"
              }
            ]
          },
          {
            "region": "Pennsylvania",
            "regionCode": "PA",
            "city": "Harrisburg",
            "name": "Pennsylvania Department of Banking",
            "division": "Consumer Services",
            "address": "17 N. Second Street, Suite 1300",
            "postal": "17101-2290",
            "website": "www.banking.state.pa.us",
            "phone": [
              {
                "type": "normal",
                "number": "(717) 787-1854"
              },
              {
                "type": "toll-free",
                "number": "(800)PA.Banks",
                "label": "toll-free in PA"
              }
            ]
          },
          {
            "region": "Rhode Island",
            "regionCode": "RI",
            "city": "Cranston",
            "name": "State of Rhode Island Department of Business Regulation",
            "division": "Division of Banking",
            "address": "1511 Pontiac Avenue, Bldg. 68-2",
            "postal": "02920",
            "website": "www.dbr.ri.gov",
            "phone": [
              {
                "type": "normal",
                "number": "1 (401) 462-9500"
              }
            ]
          },
          {
            "region": "South Carolina",
            "regionCode": "SC",
            "city": "Columbia",
            "name": "Consumer Complaint",
            "division": "S.C. Department of Consumer Affairs",
            "address": "P.O. Box 5757",
            "postal": "29250-5757",
            "email": "scda@scconsumer.gov",
            "website": "www.scconsumer.gov",
            "phone": [
              {
                "type": "normal",
                "number": "(803) 734-4200"
              },
              {
                "type": "toll-free",
                "number": "(800) 922-1595"
              }
            ]
          },
          {
            "region": "Wisconsin",
            "regionCode": "WI",
            "city": "Madison",
            "name": "Department of Financial Institutions",
            "division": "Office of Consumer Affairs",
            "address": "PO Box 8041",
            "postal": "53708-8041",
            "website": "www.wdfi.org",
            "phone": [
              {
                "type": "normal",
                "number": "(608) 264-7969"
              },
              {
                "type": "toll-free",
                "number": "(800) 452-3328"
              }
            ]
          }
        ]
      }
    }
  }
}
