<?xml version="1.0" encoding="utf-8"?>
<!DOCTYPE svg PUBLIC "-//W3C//DTD SVG 1.1//EN" "http://www.w3.org/Graphics/SVG/1.1/DTD/svg11.dtd">
<svg version="1.1" id="Layer_1" xmlns="http://www.w3.org/2000/svg" xmlns:xlink="http://www.w3.org/1999/xlink" x="0px" y="0px"
	 width="71.2px" height="89px" viewBox="0 0 71.2 89" enable-background="new 0 0 71.2 89" xml:space="preserve">
<rect y="0" fill="#FFFFFF" width="71.2" height="17.8"/>
<rect y="35.6" fill="#FFFFFF" width="71.2" height="17.8"/>
<rect y="71.2" fill="#FFFFFF" width="17.8" height="17.8"/>
</svg>
